20

4
4
1
-1
6
7
-3
7
1
1

4
6
3
4
6
-1
3
6

5
1
5
-2
-1
5
5
7
6
7
4
5

3
-1
3
7
2
7
6
7
-2
2
3
4
-2
7
-2

2
7
1
-1
1
6
-3
4

1
3
1
7
3
1
3
6
2
-3
2

5
2
-1
4
-1
6
7
3
6

2
1
5
7
-2
2
3
6
1
-4
6
-1
7
-1

5
2
-1
3
1
2
-2
5
4
-1

6
6
7
6
-2
2
7
2
2

3
4
2
1
-1
2
-2
7
-1
4
4
-1

2
7
1
5
-1
-1
4
-1
5
6
7

3
4
5
6
7
-1

4
3
7
3
1
5
5
6
1
-2
1
6
-1
7
1
-1

3
5
-1
3
1
3
1
7
7
5
7

2
2
4
1
3
5
4
-2
-1

7
6
-1
5
3
5
6
-2
3
-1

4
-1
5
-1
3
2
4
1
3
2
-1

7
-1
4
6
2
2
6
6
-3
-1
7
7

4
6
2
6
-1
4
3
7
4
